﻿[
	{
		"_id": "co-05",
		"_parentId": "course",
		"_type": "page",
		"_classes": "",
		"title": "Instagram 社群",
		"displayTitle": "Instagram 社群",
		"pageBody": "&#160;",
		"body": "Instagram 社群匯集了來自世界各地的用戶和企業，一同分享熱愛的事物，為彼此激發靈感。",
		"_graphic": {
			"src": "course/en/images/contentObjects/gene_paek5.png",
			"alt": "Instagram 簡介圖像。"
		},
		"linkText": "查看",
		"durationLabel": "時間：",
		"duration": "2 分鐘",
		"_pageLevelProgress": {
			"_isEnabled": true
		}
	},
	{
		"_id": "co-10",
		"_parentId": "course",
		"_type": "page",
		"_classes": "",
		"title": "Instagram 新手入門",
		"displayTitle": "Instagram 新手入門",
		"pageBody": "&#160;",
		"body": "提供一些問題和最佳作法，作為您開始使用 Instagram 的參考。",
		"_graphic": {
			"src": "course/en/images/contentObjects/julianaconstantino.png",
			"alt": "Instagram 新手入門圖像"
		},
		"linkText": "查看",
		"durationLabel": "時間：",
		"duration": "2 分鐘",
		"_pageLevelProgress": {
			"_isEnabled": true
		}
	}
]
